{
 "packages": {
  "dir": "",
  "menu": [
   [
    "components",
    [
     "button",
     "icon",
     "theme-switch",
     "panel",
     "input"
    ]
   ],
   [
    "tokens",
    [
     "colors",
     "rounded",
     "borders",
     "spacing",
     "opacity",
     "theme",
     "theme"
    ]
   ],
   [
    "infrastructure",
    [
     "dockit"
    ]
   ]
  ]
 }
}